{
    "chars": [
        "IP2D_isDefaults",
        "IP3D_isDefaults",
        "JetFitter_isDefaults",
        "SV1_isDefaults",
        "JetFitterSecondaryVertex_isDefaults",
        "rnnip_isDefaults"
    ],
    "jet_int_variables": [
        "HadronConeExclTruthLabelID",
        "HadronConeExclExtendedTruthLabelID",
        "jetPtRank",
        "OfflineMatchedHadronConeExclTruthLabelID",
        "OfflineMatchedHadronConeExclExtendedTruthLabelID",
        "n_tracks",
        "n_fs_tracks",
        "n_fs_tracks_simple_ip"
    ],
    "floats": [
        "pt_btagJes",
        "JetFitter_mass",
        "JetFitter_massUncorr",
        "JetFitterSecondaryVertex_mass",
        "JetFitterSecondaryVertex_energy"
    ],
    "halves": [
        "eta_btagJes", "absEta_btagJes",
        "JetFitter_energyFraction",
        "JetFitter_significance3d",
        "JetFitter_deltaphi",
        "JetFitter_deltaeta",
        "JetFitter_dRFlightDir",
        "SV1_masssvx",
        "SV1_efracsvx",
        "SV1_significance3d",
        "SV1_dstToMatLay",
        "SV1_deltaR",
        "SV1_Lxy",
        "SV1_L3d",
        "JetFitter_deltaR",
        "JetFitterSecondaryVertex_displacement3d",
        "JetFitterSecondaryVertex_displacement2d",
        "JetFitterSecondaryVertex_energyFraction",
        "JetFitterSecondaryVertex_minimumTrackRelativeEta",
        "JetFitterSecondaryVertex_maximumTrackRelativeEta",
        "JetFitterSecondaryVertex_averageTrackRelativeEta",
        "JetFitterSecondaryVertex_minimumAllJetTrackRelativeEta",
        "JetFitterSecondaryVertex_maximumAllJetTrackRelativeEta",
        "JetFitterSecondaryVertex_averageAllJetTrackRelativeEta",
        "IP2D_pu", "IP2D_pc", "IP2D_pb",
        "IP3D_pu", "IP3D_pc", "IP3D_pb",
        "IP2D_cu", "IP2D_bu", "IP2D_bc",
        "IP3D_cu", "IP3D_bu", "IP3D_bc",
        "rnnip_pu", "rnnip_pc", "rnnip_pb",
        "DL1r_pu", "DL1r_pc", "DL1r_pb",
        "deltaRToOfflineJet",
        "deltaPtToOfflineJet",
        "OfflineMatchedDL1r_pb",
        "OfflineMatchedDL1r_pc",
        "OfflineMatchedDL1r_pu"
    ],
    "doubles": [
    ],
    "jet_floats": [
        "HadronConeExclTruthLabelPt",
        "pt"
    ],
    "jet_halves": [
        "Jvt",
        "eta"
    ],
    "ints_as_halves": [
        "JetFitter_nVTX",
        "JetFitter_nSingleTracks",
        "JetFitter_nTracksAtVtx",
        "JetFitter_N2Tpair",
        "SV1_N2Tpair",
        "SV1_NGTinSvx",
        "JetFitterSecondaryVertex_nTracks",
        "IP2D_nTrks",
        "IP3D_nTrks"
    ],
    "event_compressed": [
        "mcEventWeight",
        "eventNumber",
        "averageInteractionsPerCrossing",
        "actualInteractionsPerCrossing",
        "nPrimaryVertices",
        "primaryVertexDetectorZ",
        "primaryVertexDetectorZUncertainty"
    ]
}
