{
    "jet_collection": "AntiKt4EMPFlowJets",
    "calibration": {
        "file": "fragments/pflow-calibration.json"
    },
    "selection": {
        "file": "fragments/pflow-selection.json"
    },
    "vertex_collection": "PrimaryVertices",
    "dl2_configs": [
        {
            "nn_file_path": "BTagging/20220314/dipsLoose/antikt4empflow/network.json",
            "remapping": {
                "invalidIp": ""
            }
        },
        {
            "nn_file_path": "BTagging/20220509/dl1dLoose/antikt4empflow/network.json",
            "remapping": {
                "invalidIp": ""
            }
        }
    ],
    "variables": {
        "btag": {
            "file": "fragments/single-btag-variables.json",
            "chars": [
                "rnnip_isDefaults"
            ],
            "floats": [
                "rnnip_pu",
                "rnnip_pc",
                "rnnip_pb",
                "DL1r_pu",
                "DL1r_pc",
                "DL1r_pb",
                "dipsLoose20210729_pb",
                "dipsLoose20210729_pc",
                "dipsLoose20210729_pu",
                "dipsLoose20220314v2_pb",
                "dipsLoose20220314v2_pc",
                "dipsLoose20220314v2_pu",
                "DL1dv00_pu",
                "DL1dv00_pc",
                "DL1dv00_pb",
                "DL1dv01_pu",
                "DL1dv01_pc",
                "DL1dv01_pb"
            ]
        },
        "default_mapping": {
            "file": "fragments/default-mapping.json"
        }
    },
    "tracks": [],
    "truths": [
        {
            "file": "fragments/overlap-leptons-TRUTH3.json"
        }
    ],
    "decorate": {
        "jet_aug": false,
        "btag_jes": true,
        "soft_muon": false,
        "track_truth_info": false,
        "track_sv_info": false,
        "track_lepton_id": false
    },
    "btagging_link": "btaggingLink"
}
