{
    "jet_collection": "AntiKt4EMPFlowJets",
    "calibration": {
        "file": "fragments/pflow-calibration.json"
    },
    "selection": {
        "file": "fragments/pflow-selection.json"
    },
    "vertex_collection": "PrimaryVertices",
    "dl2_configs": [
    ],
    "variables": {
        "btag": {
            "file": "fragments/single-btag-variables.json"
        },
        "default_mapping": {
            "file": "fragments/default-mapping.json"
        }
    },
    "tracks": [],
    "truths": [
        {
            "file": "fragments/overlap-leptons-TRUTH3.json"
        }
    ],
    "decorate": {
        "jet_aug": false,
        "btag_jes": true,
        "soft_muon": false,
        "track_truth_info": false,
        "track_sv_info": false,
        "track_lepton_id": false
    },
    "flow": {
        "output_name": "flow",
        "n_to_save": 5,
        "variables": {
            "customs": ["pt"]
        },
        "associations": {
            "track": {
                "variables": {
                    "customs": [
                        "track_pt",
                        "d0"
                    ]
                },
                "edm_names": {
                    "track_pt": "pt",
                    "ip_prefix": "btagIp_"
                }
            },
            "cluster": {
                "variables": {
                    "customs": [
                        "cluster_energy"
                    ]
                },
                "edm_names": {
                    "cluster_energy": "energy"
                }
            }
        }
    },
    "btagging_link": "btaggingLink"
}
