{
    "jet_collection": "tempJets",
    "calibration": {},
    "selection": {
        "minimum_jet_pt": 20000,
        "maximum_jet_absolute_eta": 2.5
    },
    "vertex_collection": "HLT_IDVertex_FS",
    "dl2_configs": [
        {
            "nn_file_path": "BTagging/20211216trig/dips/AntiKt4EMPFlow/network.json",
            "remapping": {
                "invalidIp": ""
            }
        },
        {
            "nn_file_path": "BTagging/20211216trig/dips/AntiKt4EMPFlow/network.json",
            "where": "jet",
            "remapping": {
                "BTagTrackToJetAssociator": "FsTracks",
                "dips20211116_pb": "dips20211116FsTracks_pb",
                "dips20211116_pc": "dips20211116FsTracks_pc",
                "dips20211116_pu": "dips20211116FsTracks_pu",
                "invalidIp": ""
            }
        },
        {
            "nn_file_path": "dev/BTagging/20220314v2/dipsLoose/antikt4empflow/network.json",
            "where": "jet",
            "remapping": {
                "BTagTrackToJetAssociator": "FsTracks",
                "dipsLoose20220314v2_pb": "dipsLoose20220314v2FsTracks_pb",
                "dipsLoose20220314v2_pc": "dipsLoose20220314v2FsTracks_pc",
                "dipsLoose20220314v2_pu": "dipsLoose20220314v2FsTracks_pu",
                "invalidIp": ""
            }
        },
        {
            "nn_file_path": "BTagging/20220509/gn1/antikt4empflow/network.onnx",
            "where": "jet",
            "engine":"gnn",
            "remapping": {
                "BTagTrackToJetAssociator": "FsTracks",
                "GN120220509_pb": "GN120220509FsTracks_pb",
                "GN120220509_pc": "GN120220509FsTracks_pc",
                "GN120220509_pu": "GN120220509FsTracks_pu"
            }
        },
        {
            "nn_file_path": "BTagging/20211215trig/fastDips/antikt4empflow/network.json",
            "where": "jet",
            "remapping": {
                "BTagTrackToJetAssociator": "FsTracks10GeV",
                "fastDIPS20211215_pb": "fastDIPS20211215FsTracks10GeV_pb",
                "fastDIPS20211215_pc": "fastDIPS20211215FsTracks10GeV_pc",
                "fastDIPS20211215_pu": "fastDIPS20211215FsTracks10GeV_pu",
                "invalidIp": ""
            }
        },
        {
            "nn_file_path": "BTagging/20211215trig/fastDips/antikt4empflow/network.json",
            "where": "jet",
            "remapping": {
                "BTagTrackToJetAssociator": "FsTracks20GeV",
                "fastDIPS20211215_pb": "fastDIPS20211215FsTracks20GeV_pb",
                "fastDIPS20211215_pc": "fastDIPS20211215FsTracks20GeV_pc",
                "fastDIPS20211215_pu": "fastDIPS20211215FsTracks20GeV_pu",
                "invalidIp": ""
            }
        },
        {
            "nn_file_path": "BTagging/20211215trig/fastDips/antikt4empflow/network.json",
            "where": "jet",
            "remapping": {
                "BTagTrackToJetAssociator": "GhostTrack_ftf",
                "fastDIPS20211215_pb": "fastDIPS20211215GhostTracks_pb",
                "fastDIPS20211215_pc": "fastDIPS20211215GhostTracks_pc",
                "fastDIPS20211215_pu": "fastDIPS20211215GhostTracks_pu",
                "invalidIp": ""
            }
        },
        {
            "nn_file_path": "BTagging/20211215trig/fastDips/antikt4empflow/network.json",
            "where": "jet",
            "remapping": {
                "BTagTrackToJetAssociator": "FsTracksFixedCone",
                "fastDIPS20211215_pb": "fastDIPS20211215FsTracksFixedCone_pb",
                "fastDIPS20211215_pc": "fastDIPS20211215FsTracksFixedCone_pc",
                "fastDIPS20211215_pu": "fastDIPS20211215FsTracksFixedCone_pu",
                "invalidIp": ""
            }
        }
    ],
    "variables": {
        "btag": {
            "file": "fragments/trigger-variables.json",
            "halves": [
                "dips20211116_pb",
                "dips20211116_pc",
                "dips20211116_pu",
                "DL1d20211216_pb",
                "DL1d20211216_pc",
                "DL1d20211216_pu"
            ],
            "jet_halves": [
                "deltaRToPFlowJet",
                "fastDIPS20211215_pb",
                "fastDIPS20211215_pc",
                "fastDIPS20211215_pu",
                "dips20211116FsTracks_pb",
                "dips20211116FsTracks_pc",
                "dips20211116FsTracks_pu",
                "dipsLoose20220314v2FsTracks_pb",
                "dipsLoose20220314v2FsTracks_pc",
                "dipsLoose20220314v2FsTracks_pu",
                "GN120220509FsTracks_pb",
                "GN120220509FsTracks_pc",
                "GN120220509FsTracks_pu",
                "fastDIPS20211215FsTracks10GeV_pb",
                "fastDIPS20211215FsTracks10GeV_pc",
                "fastDIPS20211215FsTracks10GeV_pu",
                "fastDIPS20211215FsTracks20GeV_pb",
                "fastDIPS20211215FsTracks20GeV_pc",
                "fastDIPS20211215FsTracks20GeV_pu",
                "fastDIPS20211215GhostTracks_pb",
                "fastDIPS20211215GhostTracks_pc",
                "fastDIPS20211215GhostTracks_pu",
                "fastDIPS20211215FsTracksFixedCone_pb",
                "fastDIPS20211215FsTracksFixedCone_pc",
                "fastDIPS20211215FsTracksFixedCone_pu"
            ],
            "jet_int_variables": [
                "n_fs_tracks_associated",
                "n_fs_tracks_10gev",
                "n_fs_tracks_20gev",
                "n_ghost_tracks"
            ]
        },
        "default_mapping": {
            "file": "fragments/default-mapping.json"
        }
    },
    "tracks": [
        {
            "file": "fragments/tracks-loose-on-jet.json",
            "btagging_link": "btaggingLink",
            "input_name": "BTagTrackToJetAssociator",
            "output_name": "tracks"
        },
        {
            "file": "fragments/tracks-loose-on-jet.json",
            "input_name": "FsTracks",
            "output_name": "fs_tracks"
        },
        {
            "file": "fragments/tracks-loose-on-jet.json",
            "input_name": "FsTracksFixedCone",
            "output_name": "fs_tracks_fixed_cone"
        },
        {
            "file": "fragments/tracks-loose-on-jet.json",
            "input_name": "FsTracks10GeV",
            "output_name": "fs_tracks_10gev"
        },
        {
            "file": "fragments/tracks-loose-on-jet.json",
            "input_name": "FsTracks20GeV",
            "output_name": "fs_tracks_20gev"
        },
        {
            "file": "fragments/tracks-loose-on-jet.json",
            "input_name": "FsTracks",
            "output_name": "fs_tracks_simple_ip",
            "ip_prefix": "poboyIp_"
        },
        {
            "file": "fragments/tracks-loose-on-jet.json",
            "n_to_save": 0,
            "input_name": "TracksForMinimalJetTag",
            "output_name": "fs_tracks_associated"
        },
        {
            "file": "fragments/tracks-loose-on-jet.json",
            "input_name": "GhostTrack_ftf",
            "output_name": "ghost_tracks"
        }
    ],
    "truths": [
        {
            "file": "fragments/overlap-leptons.json"
        }
    ],
    "decorate": {
        "jet_aug": false,
        "btag_jes": true,
        "soft_muon": false,
        "track_truth_info": false,
        "track_sv_info": false,
        "track_lepton_id": false
    },
    "btagging_link": "btaggingLink"
}
